{
    "index": {
        "download_fdroid": "Descargar F-Droid", 
        "gpg_signature": "Firma PGP", 
        "introduction": "F-Droid es un catálogo instalable de aplicaciones de software libre (FOSS, «Free and Open Source Software») para Android. El cliente facilita la navegación, la instalación y el seguimiento de las actualizaciones en su dispositivo.", 
        "screenshot": "Capturas de pantalla de F-Droid para Android", 
        "title": "¿Qué es F-Droid?"
    }, 
    "navigation": {
        "about": "Acerca de", 
        "browse": "Consultar", 
        "contribute": "Contribuir", 
        "documentation": "Documentos", 
        "forum": "Foro", 
        "issues": "Incidencias", 
        "news": "Noticias", 
        "repomaker": "Repomaker"
    }, 
    "package": {
        "changelog": "Historial de cambios", 
        "donate": "Donar", 
        "download": "Descargar [file_extension]", 
        "flattr": "Flattr", 
        "gpg_signature": "Firma PGP", 
        "issue_tracker": "Sistema de incidencias", 
        "license": "Licencia", 
        "minimum_android_version": "Esta versión requiere Android [android_version]  o superior.", 
        "new_in_version": "Nuevo en la versión [latest_version]", 
        "packages": "Paquetes", 
        "permissions": "Permisos", 
        "signed_by_developer": "Compilada y firmada por el desarrollador original.", 
        "signed_by_fdroid": "Compilada y firmada por F-Droid, y garantizada su correspondencia con <a href=\"[source_code_url]\">este paquete de fuentes</a>.", 
        "source_code": "Código fuente", 
        "suggest_downloading_via_fdroid": "Aunque las descargas APK estén disponibles abajo para tu elección, deberías saber que al instalar de este modo no recibirás notificaciones de actualizaciones, y que es una forma de descarga menos segura. Recomendamos que instales y uses el cliente de F-Droid.", 
        "technical_info": "Información técnica", 
        "version_info": "<b>Versión [package_version]</b> ([package_version_code]) - Añadida el [package_added_date]", 
        "website": "Sitio web"
    }, 
    "sidebars": {
        "donate": {
            "bank_transfer_name": "Nombre", 
            "bitcoin_alt": "Bitcoin", 
            "flattr_alt": "Flattr", 
            "heading": "Donar", 
            "paypal_alt": "PayPal", 
            "powered_by_donations": "¡F-Droid se mantiene por sus donaciones!", 
            "via_bank_transfer": "Transferencia bancaria"
        }, 
        "last_updated": {
            "heading": "Última actualización"
        }, 
        "latest_packages": {
            "heading": "Últimas aplicaciones"
        }, 
        "news": {
            "heading": "Noticias"
        }, 
        "search": {
            "heading": "Buscar apps", 
            "noscript": "Requiere que se habilite JavaScript"
        }
    }
}